<svg   width="50"   height="50"   viewBox="0 0 50.000001 50.000001"   id="arrowRight"   version="1.1"   inkscape:version="0.91 r13725"   sodipodi:docname="arrow.svg">
  <g     inkscape:label="Layer 1"     inkscape:groupmode="layer"     id="layer1"     transform="translate(0,-1002.3622)">
    <path       style="fill:none;fill-rule:evenodd;stroke:#000000;stroke-width:3;stroke-linecap:butt;stroke-linejoin:miter;stroke-miterlimit:4;stroke-dasharray:none;stroke-opacity:1"
       d="m 17.463017,1009.2449 17.901786,17.9911 -17.767857,18.0804"
       id="path4147"
       inkscape:connector-curvature="0" />
  </g>
</svg>
